{
  "id": "coral_reef",
  "type": "biome",
  "classes": [
    "volcanic_rocks_source",
    "sedimentary_rocks_source",
    "salt_water_source",
    "place"
  ],
  "tags": [
    "describe_if_recognized"
  ],
  "attributes": {
    "initial_tile_index": 56
  },
  "ecoregions": [
    "oceanic_landmass",
    "tropical_biome"
  ],
  "init": [
    {
      "attributes": {
        "altitude": {
          "maximum": -750,
          "minimum": -1150
        },
        "effective_temperature": {
          "minimum": 28
        }
      },
      "label": "torrid_low_depth_waters"
    },
    {
      "attributes": {
        "altitude": {
          "maximum": -3150,
          "minimum": -3550
        },
        "effective_temperature": {
          "minimum": 26
        }
      },
      "label": "torrid_high_depth_waters"
    }
  ],
  "plugs": [
    {
      "name": "in_world",
      "ord": 1,
      "slot_type": "world",
      "value": 0.0
    }
  ],
  "slots": [
    {
      "closure": 0.0,
      "name": "surface",
      "ord": 1,
      "slot_type": "placement",
      "value": -1
    }
  ],
  "triggers": [
    {
      "label": "run_this_hook_in_prepare_world",
      "conditions": [
        {
          "label": "adjust_altitude_for_this_tile",
          "arg": "unknown",
          "query_name": "unknown",
          "tags": [
            "adjust_tile_attribute"
          ],
          "test_name": "unknown",
          "value": 2,
          "write": "altitude"
        }
      ],
      "tags": [],
      "task": "hook_prepare_world"
    },
    {
      "label": "populate_this_biome_with_a_lagoon",
      "conditions": [
        {
          "label": "01_check_probability",
          "type": "probability",
          "value": 75
        },
        {
          "label": "02_spawn_lagoon",
          "arg": "atoll_lagoon",
          "type": "spawn_object"
        },
        {
          "label": "03_enter_lagoon",
          "arg": "UNUSED",
          "test_name": "swim",
          "type": "pathway_to_object",
          "value": 1
        },
        {
          "label": "04_navigate_lagoon",
          "arg": "LAST",
          "test_name": "sail",
          "type": "pathway_to_object",
          "value": 1
        },
        {
          "label": "05_leave_lagoon",
          "arg": "outside",
          "test_name": "sail",
          "type": "pathway_to_parent",
          "value": 1
        },
        {
          "label": "06_leave_lagoon",
          "arg": "outside",
          "test_name": "swim",
          "type": "pathway_to_parent",
          "value": 1
        }
      ],
      "tags": [],
      "task": "hook_populate_tiles"
    },
    {
      "label": "populate_this_biome_with_a_beach",
      "conditions": [
        {
          "label": "07_probability",
          "type": "probability",
          "value": 70
        },
        {
          "label": "08_palm_beach",
          "arg": "palm_beach",
          "type": "spawn_object"
        },
        {
          "label": "09_enter_beach",
          "arg": "UNUSED",
          "test_name": "walk",
          "type": "pathway_to_object",
          "value": 1
        },
        {
          "label": "10_leave_beach",
          "arg": "outside",
          "test_name": "walk",
          "type": "pathway_to_parent",
          "value": 1
        }
      ],
      "tags": [],
      "task": "hook_populate_tiles"
    }
  ]
}
