{
  "id": "desert_oasis",
  "type": "terrain",
  "classes": [
    "fresh_water_source",
    "place"
  ],
  "tags": [
    "describe_if_recognized"
  ],
  "attributes": {
    "initial_tile_index": 0.0
  },
  "plugs": [
    {
      "name": "located",
      "ord": 1,
      "slot_type": "placement",
      "value": 0.0
    }
  ],
  "slots": [
    {
      "closure": 0.0,
      "name": "surface",
      "ord": 1,
      "slot_type": "placement",
      "value": -1
    }
  ]
}
