{
  "id": "library_sign",
  "type": "milestone",
  "classes": [
    "sign"
  ],
  "tags": [],
  "attributes": {
    "diaphaneity": 8,
    "shape": 5
  },
  "triggers": [
    {
      "label": "initialize_text",
      "conditions": [
        {
          "label": "first_line_of_text",
          "arg": "library_sign_text",
          "query_name": "@created_id",
          "test_name": "jappend_text_to_object"
        }
      ],
      "tags": [],
      "task": "hook_create"
    },
    {
      "label": "spawn_this_object",
      "conditions": [
        {
          "label": "spawn_component",
          "amount": 1,
          "arg": "plastic_chunk",
          "test_name": "make_component"
        }
      ],
      "tags": [],
      "task": "spawn",
      "type": "recipe"
    }
  ]
}
