{
  "id": "opal_rock",
  "type": "resource_class",
  "classes": [
    "rock",
    "opal"
  ],
  "tags": [
    "is_visible_object",
    "describe_if_recognized"
  ],
  "triggers": [
    {
      "label": "check_if_recognized",
      "conditions": [
        {
          "label": "01_pass_player_id_as_caller",
          "test_name": "@player_id",
          "write": "caller"
        },
        {
          "label": "02_check_acquired_knowledge",
          "arg": "lithic_reduction",
          "query_name": "qpick_acquired_knowledge_in_self",
          "tags": [],
          "test_name": "jfilter_query_by_class",
          "type": "if"
        },
        {
          "label": "03_success",
          "arg": "true",
          "test_name": "jwrite_arg",
          "write": "recognized_datum"
        },
        {
          "label": "12_else",
          "type": "else"
        },
        {
          "label": "13_fail",
          "arg": "false",
          "test_name": "jwrite_arg",
          "write": "recognized_datum"
        },
        {
          "label": "22_endif",
          "type": "endif"
        }
      ],
      "tags": [],
      "task": "datum_describe",
      "type": "resolve_datum"
    }
  ]
}
