{
  "id": "bipedal_walking",
  "type": "locomotion",
  "classes": [],
  "tags": [],
  "triggers": [
    {
      "label": "walk_command",
      "conditions": [
        {
          "label": "check_if_we_have_an_argument",
          "arg": "arg1",
          "test_name": "jfield_exists_in_buffer",
          "type": "if"
        },
        {
          "label": "write_direction",
          "arg": "@arg1",
          "test_name": "jwrite_arg",
          "write": "proposed_direction"
        },
        {
          "label": "here_else",
          "type": "else"
        },
        {
          "label": "send_error_message",
          "arg": "walk_where",
          "tags": [
            "do_abort"
          ],
          "test_name": "jtrigger_response"
        },
        {
          "label": "here_endif",
          "type": "endif"
        },
        {
          "label": "pick_parent",
          "query_name": "qpick_parent",
          "test_name": "jpass_query",
          "write": "proposed_origin"
        },
        {
          "label": "write_displacement",
          "arg": "walk",
          "test_name": "jwrite_arg",
          "write": "proposed_displacement"
        },
        {
          "label": "prepare_this_displacement",
          "test_name": "jprepare_displacement",
          "write": "prepare_displacement"
        },
        {
          "label": "check_prepare_displacement",
          "arg": "proposed_parent",
          "tags": [
            "negate"
          ],
          "test_name": "jfield_exists_in_buffer",
          "type": "if"
        },
        {
          "label": "send_error_message",
          "arg": "cannot_displace",
          "tags": [
            "do_abort"
          ],
          "test_name": "jtrigger_response"
        },
        {
          "label": "here_endif",
          "type": "endif"
        },
        {
          "label": "prepare_location_for_this_displacement",
          "test_name": "jprepare_location",
          "write": "prepare_location"
        },
        {
          "label": "check_prepare_location",
          "arg": "parent_id",
          "test_name": "jfield_exists_in_buffer",
          "type": "if"
        },
        {
          "label": "locate_in_destination",
          "test_name": "jmake_location"
        },
        {
          "label": "send_message",
          "arg": "you_displace_there",
          "test_name": "jtrigger_response"
        },
        {
          "label": "here_else",
          "type": "else"
        },
        {
          "label": "send_error_message",
          "arg": "cannot_go_there",
          "tags": [
            "do_abort"
          ],
          "test_name": "jtrigger_response"
        },
        {
          "label": "here_endif",
          "type": "endif"
        }
      ],
      "tags": [],
      "task": "walk",
      "type": "user_command"
    }
  ]
}
