{
  "id": "shore",
  "type": "coastline",
  "classes": [
    "fresh_water_source",
    "place"
  ],
  "tags": [
    "describe_if_recognized"
  ],
  "attributes": {
    "initial_tile_index": 0.0
  },
  "plugs": [
    {
      "name": "in_world",
      "ord": 1,
      "slot_type": "world",
      "value": 0.0
    }
  ],
  "slots": [
    {
      "closure": 0.0,
      "name": "surface",
      "ord": 1,
      "slot_type": "placement",
      "value": -1
    }
  ],
  "triggers": [
    {
      "label": "steep_coastline_for_inland_watermasses",
      "conditions": [
        {
          "label": "define_proto_ecoregion",
          "arg": "proto_ecoregion",
          "write": "steep_terrain"
        }
      ],
      "tags": [
        "steep_terrain_meets_inland_watermass",
        "steep_terrain_meets_inland_landlocked_watermass",
        "wild_terrain_meets_inland_watermass",
        "wild_terrain_meets_inland_landlocked_watermass"
      ],
      "task": "define_steep_coastline"
    },
    {
      "label": "wild_coastline_for_inland_watermasses",
      "conditions": [
        {
          "label": "define_proto_ecoregion",
          "arg": "proto_ecoregion",
          "write": "wild_terrain"
        }
      ],
      "tags": [
        "steep_terrain_meets_inland_watermass",
        "steep_terrain_meets_inland_landlocked_watermass",
        "wild_terrain_meets_inland_watermass",
        "wild_terrain_meets_inland_landlocked_watermass"
      ],
      "task": "define_wild_coastline"
    }
  ]
}
