{
  "id": "common_semiprecious_rocks_source",
  "type": "source",
  "classes": [
    "stone_source"
  ],
  "tags": [],
  "triggers": [
    {
      "label": "provide_resource",
      "conditions": [
        {
          "label": "provide_limestone_rock",
          "arg": "limestone_rock",
          "value": 60
        },
        {
          "label": "provide_sandstone_rock",
          "arg": "sandstone_rock",
          "value": 40
        }
      ],
      "tags": [],
      "task": "spawn_stone",
      "type": "spawn_resource"
    },
    {
      "label": "provide_rock",
      "conditions": [
        {
          "label": "provide_limestone_rock",
          "arg": "limestone_rock",
          "value": 60
        },
        {
          "label": "provide_sandstone_rock",
          "arg": "sandstone_rock",
          "value": 40
        }
      ],
      "tags": [],
      "task": "spawn_rock",
      "type": "spawn_resource"
    },
    {
      "label": "provide_limestone_rock",
      "conditions": [
        {
          "label": "provide_limestone_rock",
          "arg": "limestone_rock",
          "value": 80
        }
      ],
      "tags": [],
      "task": "spawn_limestone_rock",
      "type": "spawn_resource"
    },
    {
      "label": "provide_sandstone_rock",
      "conditions": [
        {
          "label": "provide_sandstone_rock",
          "arg": "sandstone_rock",
          "value": 50
        }
      ],
      "tags": [],
      "task": "spawn_sandstone_rock",
      "type": "spawn_resource"
    }
  ]
}
